<?xml version="1.0" encoding="utf-8"?>
<!-- Generator: Adobe Illustrator 16.0.0, SVG Export Plug-In . SVG Version: 6.00 Build 0)  -->
<!DOCTYPE svg PUBLIC "-//W3C//DTD SVG 1.1//EN" "http://www.w3.org/Graphics/SVG/1.1/DTD/svg11.dtd">
<svg version="1.1" id="Capa_1" xmlns="http://www.w3.org/2000/svg" xmlns:xlink="http://www.w3.org/1999/xlink" x="0px" y="0px"
	 width="141.732px" height="83.047px" viewBox="0 0 141.732 83.047" enable-background="new 0 0 141.732 83.047"
	 xml:space="preserve">
<g>
	<path fill="#003E8C" d="M1.417,33.382c0-3.527,2.102-5.853,5.851-5.853h13.275c11.024,0,19.202,7.201,19.202,17.929
		c0,10.947-8.477,17.773-18.753,17.773h-8.325v12.301c0,3.752-2.396,5.85-5.623,5.85c-3.226,0-5.627-2.098-5.627-5.85V33.382z
		 M12.667,53.333h7.65c4.726,0,7.724-3.451,7.724-7.951c0-4.5-2.998-7.95-7.724-7.95h-7.65V53.333z"/>
	<path fill="#003E8C" d="M42.664,29.18c0-3.601,2.252-6,5.403-6c3.147,0,5.396,2.399,5.396,6v46.201c0,3.601-2.249,6-5.396,6
		c-3.151,0-5.403-2.399-5.403-6V29.18z"/>
	<path fill="#FFFFFF" d="M59.465,46.583c0-3.602,2.249-6,5.398-6c3.15,0,5.402,2.399,5.402,6v19.276
		c0,4.498,3.373,6.974,6.977,6.974c3.599,0,6.972-2.476,6.972-6.974V46.583c0-3.602,2.254-6,5.402-6c3.149,0,5.397,2.399,5.397,6
		v19.502c0,9.599-6.373,15.748-17.771,15.748c-11.403,0-17.777-6.148-17.777-15.748V46.583z"/>
	<path fill="#003E8C" d="M101.465,33.157c0-3.601,2.475-5.627,5.925-5.627h14.397c7.805,0,14.104,5.249,14.104,13.202
		c0,5.249-2.176,8.776-6.976,11.024v0.15c6.374,0.899,11.398,6.223,11.398,12.75c0,10.576-7.051,16.275-17.399,16.275h-15.451
		c-3.449,0-6-2.174-6-5.699L101.465,33.157L101.465,33.157z M112.715,48.68h5.851c3.675,0,6.074-2.174,6.074-5.924
		c0-3.524-2.775-5.326-6.074-5.326h-5.851V48.68z M112.715,71.032h8.851c4.051,0,7.051-2.322,7.051-6.523
		c0-3.524-2.701-5.928-7.952-5.928h-7.948L112.715,71.032L112.715,71.032z"/>
	<path fill="#FFFFFF" d="M77.242,37.009c-9.869,0-17.896-8.029-17.896-17.896c0-9.867,8.026-17.897,17.896-17.897
		c9.867,0,17.895,8.029,17.895,17.896C95.136,28.979,87.109,37.009,77.242,37.009 M77.242,10.879c-4.541,0-8.235,3.692-8.235,8.233
		c0,4.539,3.694,8.23,8.235,8.23c4.536,0,8.23-3.691,8.23-8.23C85.473,14.572,81.778,10.879,77.242,10.879"/>
</g>
</svg>
