<?xml version="1.0" encoding="utf-8"?>
<!-- Generator: Adobe Illustrator 16.0.0, SVG Export Plug-In . SVG Version: 6.00 Build 0)  -->
<!DOCTYPE svg PUBLIC "-//W3C//DTD SVG 1.1//EN" "http://www.w3.org/Graphics/SVG/1.1/DTD/svg11.dtd">
<svg version="1.1" id="Capa_1" xmlns="http://www.w3.org/2000/svg" xmlns:xlink="http://www.w3.org/1999/xlink" x="0px" y="0px"
	 fill="#003e8c" width="141.73px" height="141.73px" viewBox="0 0 141.73 141.73" enable-background="new 0 0 141.73 141.73" xml:space="preserve">
<path d="M136.355,27.776c-2.583-2.95-6.244-4.573-10.343-4.573H27.159l-1.008-7.464C25.084,7.707,19.493,1.416,13.416,1.416H6.153
	c-2.251,0-4.063,1.812-4.063,4.063s1.812,4.076,4.063,4.076h7.263c1.314,0,4.075,2.76,4.68,7.262l11.646,87.362
	c0.51,3.851,2.488,7.464,5.568,10.153c2.287,2.002,4.976,3.341,7.808,3.897c-1.149,2.109-1.812,4.538-1.812,7.108
	c0,8.258,6.717,14.976,14.975,14.976s14.975-6.718,14.975-14.976c0-2.452-0.615-4.774-1.658-6.824h21.326
	c-1.066,2.05-1.671,4.372-1.671,6.824c0,8.258,6.718,14.976,14.976,14.976c8.245,0,14.963-6.718,14.963-14.976
	c0-2.452-0.593-4.774-1.646-6.824h10.662c2.239,0,4.063-1.824,4.063-4.063c0-2.251-1.824-4.075-4.063-4.075h-82.09
	c-3.98,0-7.783-3.329-8.305-7.274l-0.854-6.374h31.668l0,0c0.012,0,0.012,0,0.012,0h26.136c0,0,0,0,0.012,0l0,0h22.51
	c3.886,0,7.725-1.48,10.805-4.182c3.08-2.689,5.059-6.303,5.58-10.153l5.829-43.776C140.052,34.553,138.926,30.703,136.355,27.776z
	 M63.103,125.339c0,3.768-3.057,6.824-6.824,6.824s-6.824-3.057-6.824-6.824s3.057-6.824,6.824-6.824S63.103,121.571,63.103,125.339
	z M111.05,125.339c0,3.768-3.057,6.824-6.824,6.824s-6.824-3.057-6.824-6.824s3.057-6.824,6.824-6.824
	S111.05,121.571,111.05,125.339z M130.23,33.132c1.007,1.148,1.445,2.713,1.208,4.407l-2.452,18.351h-27.676l1.636-24.547h23.066
	C127.73,31.343,129.224,31.982,130.23,33.132z M72.439,88.589l-1.636-24.56h21.8l-1.636,24.56H72.439z M70.258,55.89l-1.635-24.547
	h26.16L93.148,55.89H70.258z M60.461,31.343l1.635,24.547h-30.59l-3.27-24.547H60.461z M32.596,64.029h30.045l1.646,24.56H35.866
	L32.596,64.029z M117.293,88.589H99.119l1.646-24.56h27.143l-2.311,17.285C125.089,85.26,121.273,88.589,117.293,88.589z"/>
</svg>
