<svg xmlns="http://www.w3.org/2000/svg" width="512" height="512" viewBox="0 0 512 512">
  <title>ionicons-v5-a</title>
  <polyline points="184 112 328 256 184 400" style="fill:none;stroke:#003e8c;stroke-linecap:round;stroke-linejoin:round;stroke-width:48px"/>
</svg>