<svg xmlns="http://www.w3.org/2000/svg" width="512" height="512" viewBox="0 0 512 512">
  <title>ionicons-v5-i</title>
  <line x1="368" y1="128" x2="448" y2="128" style="fill:none;stroke:#003e8c;stroke-linecap:round;stroke-linejoin:round;stroke-width:32px"/>
  <line x1="64" y1="128" x2="304" y2="128" style="fill:none;stroke:#003e8c;stroke-linecap:round;stroke-linejoin:round;stroke-width:32px"/>
  <line x1="368" y1="384" x2="448" y2="384" style="fill:none;stroke:#003e8c;stroke-linecap:round;stroke-linejoin:round;stroke-width:32px"/>
  <line x1="64" y1="384" x2="304" y2="384" style="fill:none;stroke:#003e8c;stroke-linecap:round;stroke-linejoin:round;stroke-width:32px"/>
  <line x1="208" y1="256" x2="448" y2="256" style="fill:none;stroke:#003e8c;stroke-linecap:round;stroke-linejoin:round;stroke-width:32px"/>
  <line x1="64" y1="256" x2="144" y2="256" style="fill:none;stroke:#003e8c;stroke-linecap:round;stroke-linejoin:round;stroke-width:32px"/>
  <circle cx="336" cy="128" r="32" style="fill:none;stroke:#003e8c;stroke-linecap:round;stroke-linejoin:round;stroke-width:32px"/>
  <circle cx="176" cy="256" r="32" style="fill:none;stroke:#003e8c;stroke-linecap:round;stroke-linejoin:round;stroke-width:32px"/>
  <circle cx="336" cy="384" r="32" style="fill:none;stroke:#003e8c;stroke-linecap:round;stroke-linejoin:round;stroke-width:32px"/>
</svg>